<?xml version="1.0" encoding="UTF-8"?>
<svg width="34px" height="20px" viewBox="0 0 34 20" version="1.1" xmlns="http://www.w3.org/2000/svg" xmlns:xlink="http://www.w3.org/1999/xlink">
    <!-- Generator: Sketch 51.2 (57519) - http://www.bohemiancoding.com/sketch -->
    <title>frame opstap laag - black</title>
    <desc>Created with Sketch.</desc>
    <defs></defs>
    <g id="Page-1" stroke="none" stroke-width="1" fill="none" fill-rule="evenodd">
        <g id="iconen-/-exports-copy" transform="translate(-149.000000, -600.000000)" fill-rule="nonzero">
            <g id="frame-opstap-laag---black" transform="translate(149.000000, 599.000000)">
                <g id="Group-3" fill="#ffffff">
                    <path d="M27,20.5 C23.4101491,20.5 20.5,17.5898509 20.5,14 C20.5,10.4101491 23.4101491,7.5 27,7.5 C30.5898509,7.5 33.5,10.4101491 33.5,14 C33.5,17.5898509 30.5898509,20.5 27,20.5 Z M27,19.5 C30.0375661,19.5 32.5,17.0375661 32.5,14 C32.5,10.9624339 30.0375661,8.5 27,8.5 C23.9624339,8.5 21.5,10.9624339 21.5,14 C21.5,17.0375661 23.9624339,19.5 27,19.5 Z" id="Oval-2" transform="translate(27.000000, 14.000000) scale(-1, 1) translate(-27.000000, -14.000000) "></path>
                    <path d="M7,20.5 C3.41014913,20.5 0.5,17.5898509 0.5,14 C0.5,10.4101491 3.41014913,7.5 7,7.5 C10.5898509,7.5 13.5,10.4101491 13.5,14 C13.5,17.5898509 10.5898509,20.5 7,20.5 Z M7,19.5 C10.0375661,19.5 12.5,17.0375661 12.5,14 C12.5,10.9624339 10.0375661,8.5 7,8.5 C3.96243388,8.5 1.5,10.9624339 1.5,14 C1.5,17.0375661 3.96243388,19.5 7,19.5 Z" id="Oval-2-Copy" transform="translate(7.000000, 14.000000) scale(-1, 1) translate(-7.000000, -14.000000) "></path>
                    <path d="M29.2096991,8.70458575 C29.28117,8.4378527 29.5553385,8.27956145 29.8220716,8.35103236 C30.0888046,8.42250326 30.2470959,8.69667174 30.175625,8.96340479 L29.345022,12.0632573 C29.2492963,12.4205105 28.8122631,12.5537781 28.533482,12.3107258 L18.1186018,3.23062455 C17.9104577,3.04915643 17.8888326,2.73331339 18.0703008,2.52516937 C18.2517689,2.31702535 18.5676119,2.29540027 18.775756,2.47686839 L28.5865297,11.0302859 L29.2096991,8.70458575 Z" id="Path-3" transform="translate(24.069979, 7.393955) scale(-1, 1) rotate(-105.000000) translate(-24.069979, -7.393955) "></path>
                    <path d="M16.2666465,6.65161165 C16.0905391,6.43891279 16.1202024,6.12372307 16.3329012,5.94761569 C16.5456001,5.77150831 16.8607898,5.80117157 17.0368972,6.01387042 L23.3851253,13.6811294 C23.655002,14.0070808 23.4231758,14.5 23,14.5 L13.866171,14.5 C13.7203221,14.5 13.5817435,14.4363174 13.4867544,14.3256425 L6.62058335,6.32564245 C6.44073599,6.11609642 6.46481152,5.80043071 6.67435755,5.62058335 C6.88390358,5.44073599 7.19956929,5.46481152 7.37941665,5.67435755 L14.0959416,13.5 L21.9368778,13.5 L16.2666465,6.65161165 Z" id="Path-7" transform="translate(15.000472, 9.999996) scale(-1, 1) translate(-15.000472, -9.999996) "></path>
                    <path d="M13.5699794,4.5 L10.4761404,14.1526117 C10.3918553,14.4155768 10.1103533,14.5604255 9.84738828,14.4761404 C9.58442321,14.3918553 9.43957449,14.1103533 9.52385962,13.8473883 L12.729043,3.84738828 C12.7953826,3.64041208 12.9878355,3.5 13.2051834,3.5 L16,3.5 C16.2761424,3.5 16.5,3.72385763 16.5,4 C16.5,4.27614237 16.2761424,4.5 16,4.5 L13.5699794,4.5 Z" id="Path-8" transform="translate(12.999933, 9.000067) scale(-1, 1) translate(-12.999933, -9.000067) "></path>
                </g>
                <path d="M22.52276,5.8508625 C22.6051264,5.58729014 22.8855651,5.44039365 23.1491375,5.52276001 C23.4127099,5.60512638 23.5596064,5.88556513 23.47724,6.1491375 L20.97724,14.1491375 C20.9120095,14.3578751 20.7186925,14.5 20.5,14.5 L20.366171,14.5 C20.2203221,14.5 20.0817435,14.4363174 19.9867544,14.3256425 L13.1205833,6.32564245 C12.940736,6.11609642 12.9648115,5.80043071 13.1743575,5.62058335 C13.3839036,5.44073599 13.6995693,5.46481152 13.8794167,5.67435755 L20.2561309,13.1040755 L22.52276,5.8508625 Z" id="Path-7" fill="#ffffff" transform="translate(18.250062, 9.999933) scale(-1, 1) translate(-18.250062, -9.999933) "></path>
            </g>
        </g>
    </g>
</svg>